…
```r
library(janeaustenr)
library(dplyr)
library(stringr)

original_books <- austen_books() %>%
  group_by(book) %>%
  mutate(linenumber = row_number(),
         chapter = cumsum(str_detect(text, 
                                     regex("^chapter [\\divxlc]",
                                           ignore_case = TRUE)))) %>%
  ungroup()

original_books
## # A tibble: 73,422 x 4
##    text                    book                linenumber chapter
##    <chr>                   <fct>                    <int>   <int>
##  1 "SENSE AND SENSIBILITY" Sense & Sensibility          1       0
##  2 ""                      Sense & Sensibility          2       0
##  3 "by Jane Austen"        Sense & Sensibility          3       0
##  4 ""                      Sense & Sensibility          4       0
##  5 "(1811)"                Sense & Sensibility          5       0
##  6 ""                      Sense & Sensibility          6       0
##  7 ""                      Sense & Sensibility          7       0
##  8 ""                      Sense & Sensibility          8       0
##  9 ""                      Sense & Sensibility          9       0
## 10 "CHAPTER 1"             Sense & Sensibility         10       1
## # ... with 73,412 more rows
```

이것을 tidy 데이터셋으로 사용하려면 `unnest_tokens()` 함수를 사용해 **1행당 1토큰(one-token-per-row)** 형식으로 구성해야 한다.


```r
library(tidytext)
tidy_books <- original_books %>%
  unnest_tokens(word, text)

tidy_books
## # A tibble: 725,055 x 4
##    book                linenumber chapter word       
##    <fct>                    <int>   <int> <chr>      
##  1 Sense & Sensibility          1       0 sense      
##  2 Sense & Sensibility          1       0 and        
##  3 Sense & Sensibility          1       0 sensibility
##  4 Sense & Sensibility          3       0 by         
##  5 Sense & Sensibility          3       0 jane       
##  6 Sense & Sensibility          3       0 austen     
##  7 Sense & Sensibility          5       0 1811       
##  8 Sense & Sensibility         10       1 chapter    
##  9 Sense & Sensibility         10       1 1          
## 10 Sense & Sensibility         13       1 the        
## # ... with 725,045 more rows
```
…
tidy_books <- tidy_books %>%
  anti_join(stop_words)
```

tidytext 패키지의 `stop_words` 데이터셋에는 3개의 불용어 용어집(lexicon)이 들어있다. 지금처럼 모두 함께 사용할 수도 있고, 특정 분석에 더 적합한 경우 `filter()`를 사용해 1개 불용어 집합만 사용할 수도 있다.

또한, dplyr의 `count()`를 사용해 모든 도서에서 가장 흔하게 나오는 단어를 찾을 수 있다.


```r
tidy_books %>%
  count(word, sort = TRUE) 
## # A tibble: 13,914 x 2
##    word       n
##    <chr>  <int>
##  1 miss    1855
##  2 time    1337
##  3 fanny    862
##  4 dear     822
##  5 lady     817
##  6 sir      806
##  7 day      797
##  8 emma     787
##  9 sister   727
## 10 house    699
## # ... with 13,904 more rows
```
…
