2 Text Mining (Eng) | R Book
…
library(janeaustenr)
library(dplyr)
library(stringr)

original_books <- austen_books() %>%
  group_by(book) %>%
  mutate(linenumber = row_number(),
         chapter = cumsum(str_detect(text, 
                                     regex("^chapter [\\divxlc]",
                                           ignore_case = TRUE)))) %>%
  ungroup()

original_books
#> # A tibble: 73,422 x 4
#>    text                    book                linenumber chapter
#>    <chr>                   <fct>                    <int>   <int>
#>  1 "SENSE AND SENSIBILITY" Sense & Sensibility          1       0
#>  2 ""                      Sense & Sensibility          2       0
#>  3 "by Jane Austen"        Sense & Sensibility          3       0
#>  4 ""                      Sense & Sensibility          4       0
#>  5 "(1811)"                Sense & Sensibility          5       0
#>  6 ""                      Sense & Sensibility          6       0
#>  7 ""                      Sense & Sensibility          7       0
#>  8 ""                      Sense & Sensibility          8       0
#>  9 ""                      Sense & Sensibility          9       0
#> 10 "CHAPTER 1"             Sense & Sensibility         10       1
#> # ... with 73,412 more rows

이것을 tidy 데이터셋으로 사용하려면 unnest_tokens() 함수를 사용해 1행당 1토큰(one-token-per-row) 형식으로 구성해야 한다.

library(tidytext)
tidy_books <- original_books %>%
  unnest_tokens(word, text)

tidy_books
#> # A tibble: 725,055 x 4
#>    book                linenumber chapter word       
#>    <fct>                    <int>   <int> <chr>      
#>  1 Sense & Sensibility          1       0 sense      
#>  2 Sense & Sensibility          1       0 and        
#>  3 Sense & Sensibility          1       0 sensibility
#>  4 Sense & Sensibility          3       0 by         
#>  5 Sense & Sensibility          3       0 jane       
#>  6 Sense & Sensibility          3       0 austen     
#>  7 Sense & Sensibility          5       0 1811       
#>  8 Sense & Sensibility         10       1 chapter    
#>  9 Sense & Sensibility         10       1 1          
#> 10 Sense & Sensibility         13       1 the        
#> # ... with 725,045 more rows

이 함수는 tokenizers를 사용해 원래 데이터 프레임에 있는 텍스트의 각 행을 토큰으로 분리한다. 기본 토큰화는 단어에 대한 것이지만 다른 옵션을 사용하면 문자, 엔그램, 문장, 줄, 단락 단위로 토큰호하 할 수 있고, 또는 정규 표혀노식 패턴을 사용해서 분리할 수 있다.

불용어(stop words)는 분석에 유용하지 않은 단어들을 말하며, 일반적으로 영어의 ‘the,’ ‘of,’ ‘to’ 등과 같은 매우 전형적인 단어를 말한다. anti_join()을 사용해 불용어를 제거할 수 있다. 이 때, 사용되는 불용어는 stop_words를 사용한다.

data(stop_words)

tidy_books <- tidy_books %>%
  anti_join(stop_words)

tidy_books
#> # A tibble: 217,609 x 4
#>    book                linenumber chapter word       
#>    <fct>                    <int>   <int> <chr>      
#>  1 Sense & Sensibility          1       0 sense      
#>  2 Sense & Sensibility          1       0 sensibility
#>  3 Sense & Sensibility          3       0 jane       
#>  4 Sense & Sensibility          3       0 austen     
#>  5 Sense & Sensibility          5       0 1811       
#>  6 Sense & Sensibility         10       1 chapter    
#>  7 Sense & Sensibility         10       1 1          
#>  8 Sense & Sensibility         13       1 family     
#>  9 Sense & Sensibility         13       1 dashwood   
#> 10 Sense & Sensibility         13       1 settled    
#> # ... with 217,599 more rows

tidytext 패키지의 stop_words 데이터셋에는 3개의 불용어 용어집(lexicon)이 들어있다. 지금처럼 모두 함께 사용할 수도 있고, 특정 분석에 더 적합한 경우 filter()를 사용해 1개 불용어 집합만 사용할 수도 있다.

또한, dplyr의 count()를 사용해 모든 도서에서 가장 흔하게 나오는 단어를 찾을 수 있다.

tidy_books %>%
  count(word, sort = TRUE) 
#> # A tibble: 13,914 x 2
#>    word       n
#>    <chr>  <int>
#>  1 miss    1855
#>  2 time    1337
#>  3 fanny    862
#>  4 dear     822
#>  5 lady     817
#>  6 sir      806
#>  7 day      797
#>  8 emma     787
#>  9 sister   727
#> 10 house    699
#> # ... with 13,904 more rows
…
우리는 gutenberg_download()와 각 소설에 대한 구텐베르크 프로젝트 식별 번호를 사용해 이러한 작품에 액세스할 수 있다.

library(gutenbergr)

hgwells <- gutenberg_download(c(35, 36, 5230, 159))

tidy_hgwells <- hgwells %>%
  unnest_tokens(word, text) %>%
  anti_join(stop_words)

재미 삼아서 웰스의 소설에 가장 공통적으로 나오는 단어는 무엇인지 알아보자.

tidy_hgwells %>%
  count(word, sort = TRUE)
#> # A tibble: 11,811 x 2
#>    word       n
#>    <chr>  <int>
#>  1 time     461
#>  2 people   302
#>  3 door     260
#>  4 heard    249
#>  5 black    232
#>  6 stood    229
#>  7 white    224
#>  8 hand     218
#>  9 kemp     213
#> 10 eyes     210
#> # ... with 11,801 more rows
…
Agnes Grey

각 소설에 구텐베르크 프로젝트 식별 번호를 다시 사용하고 gutenberg_download()를 사용하면 해당 텍스트에 액세스할 수 있다.

bronte <- gutenberg_download(c(1260, 768, 969, 9182, 767))

tidy_bronte <- bronte %>%
  unnest_tokens(word, text) %>%
  anti_join(stop_words)

브론테 자매의 소설에서 가장 자주 출현하는 단어는 무엇인가?

tidy_bronte %>%
  count(word, sort = TRUE)
#> # A tibble: 23,297 x 2
#>    word       n
#>    <chr>  <int>
#>  1 time    1065
#>  2 miss     854
#>  3 day      825
#>  4 hand     767
#>  5 eyes     714
#>  6 don’t    666
#>  7 night    648
#>  8 heart    638
#>  9 looked   601
#> 10 door     591
#> # ... with 23,287 more rows
…
frequency <- bind_rows(mutate(tidy_bronte, author = "Brontë Sisters"),
                       mutate(tidy_hgwells, author = "H.G. Wells"),
                       mutate(tidy_books, author = "Jane Austen")) %>%
             mutate(word = str_extract(word, "[a-z']+")) %>%
             count(author, word) %>%
             group_by(author) %>%
             mutate(proportion = n / sum(n)) %>%
             select(-n) %>%
             pivot_wider(names_from = author, values_from = proportion) %>%
             pivot_longer(`Brontë Sisters`:`H.G. Wells`,
                          names_to = "author",
                          values_to = "proportion")
frequency
#> # A tibble: 57,116 x 4
#>    word      `Jane Austen` author          proportion
#>    <chr>             <dbl> <chr>                <dbl>
#>  1 a            0.00000919 Bronte Sisters  0.0000587 
#>  2 a            0.00000919 H.G. Wells      0.0000147 
#>  3 aback       NA          Bronte Sisters  0.00000391
#>  4 aback       NA          H.G. Wells      0.0000147 
#>  5 abaht       NA          Bronte Sisters  0.00000391
#>  6 abaht       NA          H.G. Wells     NA         
#>  7 abandon     NA          Bronte Sisters  0.0000313 
#>  8 abandon     NA          H.G. Wells      0.0000147 
#>  9 abandoned    0.00000460 Bronte Sisters  0.0000900 
#> 10 abandoned    0.00000460 H.G. Wells      0.000177  
#> # ... with 57,106 more rows
…
